{
  "//": "# Configure the Oracle Cloud Infrastructure provider with an API Key",
  "variable": {
    "tenancy_ocid": {},
    "user_ocid": {},
    "fingerprint": {},
    "private_key_path": {},
    "compartment_ocid": {},
    "region": {},
    "private_key_password": {}
  },
  "provider": {
    "oci": {
      "tenancy_ocid": "${var.tenancy_ocid}",
      "user_ocid": "${var.user_ocid}",
      "fingerprint": "${var.fingerprint}",
      "private_key_path": "${var.private_key_path}",
      "region": "${var.region}",
      "private_key_password": "${var.private_key_password}"
    }
  },
  "//": "# Get a list of Availability Domains",
  "data": {
    "oci_identity_availability_domains": {
      "ads": {
        "compartment_id": "${var.tenancy_ocid}"
      }
    }
  },
  "//": "# Output the result",
  "output": {
    "show-ads": {
      "value": "${data.oci_identity_availability_domains.ads.availability_domains}"
    }
  }
}