{
  "resource": {
    "oci_identity_tag_namespace": {
      "test_tag_namespace": {
        "//": "#Required",
        "compartment_id": "ocid1.compartment.oc1..aaaaaaaac2aktjjzzypk7aaozv4nmbjqi3vpvh5y23enrkfz7mjsr4xsh22q",
        "description": "Tag namespace demo",
        "name": "seguimientorecursos"
      }
    }
  }
}